id;nom;date_creation
1;proactive synthesize;2021-08-22
2;Proactive neural-net Papua New Guinea;2021-08-22
3;Algerian Dinar alarm withdrawal;2021-08-21
4;Program Coordinator;2021-08-21
5;GB full-range Creative;2021-08-22
6;auxiliary Ergonomic discrete;2021-08-21
7;France;2021-08-22
8;optical invoice;2021-08-21
9;Security cross-media;2021-08-22
10;RAM New Jersey Small;2021-08-22
