id;nom;prenom;email;password
1;Tools;Cheese scale;Kayley67@yahoo.com;redundant
2;compelling Bedfordshire;Outdoors Chief Wooden;Marlen.Reichert34@hotmail.com;USB Re-contextualized
3;networks vertical Vatu;evolve Mauritania copying;Wilfred.OConnell@yahoo.com;feed Camp
4;Personal Loan Account model;navigating Puerto Rico Practical Frozen Shirt;Raquel.Simonis83@gmail.com;calculate Music Cotton
5;Secured;Organized XML;Lexi97@hotmail.com;TCP Berkshire
6;Tuna;multi-state Bhutan;Lonny.Wilderman9@gmail.com;platforms Cotton compressing
7;input;Dynamic Creative;Annette6@hotmail.com;Stravenue
8;grow;Assistant card Handmade Concrete Keyboard;Juliana_Abshire35@hotmail.com;Robust
9;Fords User-friendly Sleek;Shirt;Micah_Williamson5@gmail.com;index Avon parsing
10;Mauritius Rupee;Alaska;Felipe.Smitham87@yahoo.com;Checking Account Handcrafted Principal
