{
  "name": "Coach",
  "fields": [
    {
      "fieldName": "nom",
      "fieldType": "String"
    },
    {
      "fieldName": "prenom",
      "fieldType": "String"
    },
    {
      "fieldName": "ancienete",
      "fieldType": "Integer"
    }
  ],
  "relationships": [],
  "changelogDate": "20210822113956",
  "entityTableName": "coach",
  "dto": "no",
  "pagination": "pagination",
  "service": "serviceImpl",
  "jpaMetamodelFiltering": true,
  "fluentMethods": true,
  "readOnly": false,
  "embedded": false,
  "clientRootFolder": "",
  "applications": "*"
}
